module gitlab.com/oakkose/golangsoap

require (
	github.com/google/go-cmp v0.5.0 // indirect
	github.com/pkg/errors v0.9.1 // indirect
	golang.org/x/net v0.0.0-20210726213435-c6fcb2dbf985
	gotest.tools v2.2.0+incompatible
)

go 1.13
